module example/nunet

go 1.20

require (
	github.com/buger/jsonparser v1.1.1 // indirect
	github.com/inconshreveable/mousetrap v1.1.0 // indirect
	github.com/spf13/cobra v1.7.0 // indirect
	github.com/spf13/pflag v1.0.5 // indirect
)
